<?xml version="1.0" encoding="utf-8"?>
<!-- Generator: Adobe Illustrator 24.1.3, SVG Export Plug-In . SVG Version: 6.00 Build 0)  -->
<svg version="1.1" id="Layer_1" xmlns="http://www.w3.org/2000/svg" xmlns:xlink="http://www.w3.org/1999/xlink" x="0px" y="0px"
	 viewBox="0 0 300 200" style="enable-background:new 0 0 300 200;" xml:space="preserve">
<style type="text/css">
	.st0{fill:#FFFFFF;}
</style>
<path class="st0" d="M61.5,57.2l-29-29l11-11c1.9-1.9,0.6-5.1-2.1-5.1l-28.4,0c-1.7,0-3,1.3-3,3l0,28.4c0,2.7,3.2,4,5.1,2.1l11-11
	l29.1,29.1c0.9,0.9,2,1.3,3.2,1.3c1.1,0,2.2-0.4,3-1.2C63.4,62.1,63.3,59.1,61.5,57.2z"/>
<path class="st0" d="M55.1,137.7l-29,29l-11-11c-1.9-1.9-5.1-0.6-5.1,2.1l0,28.4c0,1.7,1.3,3,3,3l28.4,0c2.7,0,4-3.2,2.1-5.1l-11-11
	l29.1-29.1c0.9-0.9,1.3-2,1.3-3.2c0-1.1-0.4-2.2-1.2-3C60,135.8,56.9,135.9,55.1,137.7z"/>
<path class="st0" d="M236.7,144.1l29,29l-11,11c-1.9,1.9-0.6,5.1,2.1,5.1l28.4,0c1.7,0,3-1.3,3-3l0-28.4c0-2.7-3.2-4-5.1-2.1l-11,11
	L243,137.6c-0.9-0.9-2-1.3-3.2-1.3c-1.1,0-2.2,0.4-3,1.2C234.8,139.2,234.9,142.3,236.7,144.1z"/>
<path class="st0" d="M243.1,63.6l29-29l11,11c1.9,1.9,5.1,0.6,5.1-2.1l0-28.4c0-1.7-1.3-3-3-3l-28.4,0c-2.7,0-4,3.2-2.1,5.1l11,11
	l-29.1,29.1c-0.9,0.9-1.3,2-1.3,3.2c0,1.1,0.4,2.2,1.2,3C238.2,65.5,241.3,65.4,243.1,63.6z"/>
</svg>
