{
  "padding": 70,
  "camConstraints": {
    "audio": false,
    "video": {
      "facingMode": { "ideal": "environment" },
      "width": {"ideal": 640 },
      "height": {"ideal": 480 }
    }
  }
}
